Step-by-Step UID Workflow • uid
…
Sample data is provided with a sample interval of 20 seconds. We can
aggregate the data with precision of 1 minute.

down_temp <- downsample_temperature(with_activity, n = 1, precision = "minute")
down_act  <- downsample_activity(with_activity, n = 1, precision = "minute")
merged <- dplyr::left_join(
  down_temp, down_act,
  by = c("session_name", "rfid", "common_dt", "matrix_name")
)

Data acquisition might generate NAs that survive
downsampling. We included some of such gaps in the sample data.

dplyr::filter(merged, is.na(temperature))
#> # A tibble: 37 × 6
#>    session_name rfid  matrix_name common_dt           temperature activity_index
#>    <chr>        <chr> <chr>       <dttm>                    <dbl>          <dbl>
#>  1 sample_sess… A1B2… MM1         2025-01-01 03:28:00          NA             NA
#>  2 sample_sess… A1B2… MM1         2025-01-01 03:29:00          NA             NA
#>  3 sample_sess… A1B2… MM1         2025-01-01 03:30:00          NA             NA
#>  4 sample_sess… A1B2… MM1         2025-01-01 17:30:00          NA             NA
#>  5 sample_sess… A1B2… MM1         2025-01-01 17:31:00          NA             NA
#>  6 sample_sess… A1B2… MM1         2025-01-01 17:32:00          NA             NA
#>  7 sample_sess… A1B2… MM1         2025-01-01 17:33:00          NA             NA
#>  8 sample_sess… A1B2… MM1         2025-01-01 17:34:00          NA             NA
#>  9 sample_sess… A1B2… MM1         2025-01-01 17:35:00          NA             NA
#> 10 sample_sess… A1B2… MM1         2025-01-01 17:36:00          NA             NA
#> # ℹ 27 more rows
It might be desired to interpolate such NAs using
interpolate_gaps(). We can set add_flag = TRUE
to check what values were interpolated.

interp <- merged |>
  dplyr::group_by(rfid, session_name, matrix_name) |>
  interpolate_gaps(
    max_gap = 10,
    target_cols = c("temperature", "activity_index"),
    add_flag = TRUE
  )

dplyr::filter(interp, .interpolated) |> 
  dplyr::select(rfid, common_dt, temperature, .interpolated)
#> # A tibble: 37 × 4
#>    rfid     common_dt           temperature .interpolated
#>    <chr>    <dttm>                    <dbl> <lgl>        
#>  1 A1B2C3D4 2025-01-01 03:28:00        37.0 TRUE         
#>  2 A1B2C3D4 2025-01-01 03:29:00        37.1 TRUE         
#>  3 A1B2C3D4 2025-01-01 03:30:00        37.2 TRUE         
#>  4 A1B2C3D4 2025-01-01 17:30:00        37.0 TRUE         
#>  5 A1B2C3D4 2025-01-01 17:31:00        37.0 TRUE         
#>  6 A1B2C3D4 2025-01-01 17:32:00        37.0 TRUE         
#>  7 A1B2C3D4 2025-01-01 17:33:00        37.0 TRUE         
#>  8 A1B2C3D4 2025-01-01 17:34:00        37.0 TRUE         
#>  9 A1B2C3D4 2025-01-01 17:35:00        37.0 TRUE         
#> 10 A1B2C3D4 2025-01-01 17:36:00        37.0 TRUE         
#> # ℹ 27 more rows
…
